{
  "project_info": {
    "project_number": "625708020576",
    "firebase_url": "https://dochajj.firebaseio.com",
    "project_id": "dochajj",
    "storage_bucket": "dochajj.appspot.com"
  },
  "client": [
    {
      "client_info": {
        "mobilesdk_app_id": "1:625708020576:android:e47fb9e96791b643",
        "android_client_info": {
          "package_name": "io.dochajj.user"
        }
      },
      "oauth_client": [
        {
          "client_id": "625708020576-od4emlv94eh8ki91sofp48ahu8sejpp6.apps.googleusercontent.com",
          "client_type": 1,
          "android_info": {
            "package_name": "io.dochajj.user",
            "certificate_hash": "1d0bec9c602527857cc4ac9cc4b15cd10cc394d4"
          }
        },
        {
          "client_id": "625708020576-3bquh5dn3k0vl1gkr8gf0fljn34mat8h.apps.googleusercontent.com",
          "client_type": 3
        },
        {
          "client_id": "625708020576-3bquh5dn3k0vl1gkr8gf0fljn34mat8h.apps.googleusercontent.com",
          "client_type": 3
        }
      ],
      "api_key": [
        {
          "current_key": "AIzaSyAPFYaT5qWWWkbjH6P93AK_sWE4tB9Bn_w"
        }
      ],
      "services": {
        "analytics_service": {
          "status": 1
        },
        "appinvite_service": {
          "status": 2,
          "other_platform_oauth_client": [
            {
              "client_id": "625708020576-3bquh5dn3k0vl1gkr8gf0fljn34mat8h.apps.googleusercontent.com",
              "client_type": 3
            }
          ]
        },
        "ads_service": {
          "status": 2
        }
      }
    }
  ],
  "configuration_version": "1"
}